{
    "help": "https://data.go.th/api/3/action/help_show?name=datastore_search",
    "success": true,
    "result": {
        "include_total": true,
        "resource_id": "0092046c-db85-4608-b519-ce8af099315e",
        "fields": [
            {
                "type": "int",
                "id": "_id"
            },
            {
                "type": "text",
                "id": "Date"
            },
            {
                "type": "numeric",
                "id": "Pos"
            },
            {
                "type": "numeric",
                "id": "Total"
            }
        ],
        "records_format": "objects",
        "records": [
            {
                "_id": 1,
                "Date": "Cannot specify date",
                "Pos": 2963,
                "Total": 32131
            },
            {
                "_id": 2,
                "Date": "2020-01-01 00:00:00",
                "Pos": 0,
                "Total": 0
            },
            {
                "_id": 3,
                "Date": "2020-01-02 00:00:00",
                "Pos": 0,
                "Total": 0
            },
            {
                "_id": 4,
                "Date": "2020-01-03 00:00:00",
                "Pos": 0,
                "Total": 0
            },
            {
                "_id": 5,
                "Date": "2020-01-04 00:00:00",
                "Pos": 0,
                "Total": 2
            },
            {
                "_id": 6,
                "Date": "2020-01-05 00:00:00",
                "Pos": 0,
                "Total": 2
            },
            {
                "_id": 7,
                "Date": "2020-01-06 00:00:00",
                "Pos": 0,
                "Total": 5
            },
            {
                "_id": 8,
                "Date": "2020-01-07 00:00:00",
                "Pos": 0,
                "Total": 0
            },
            {
                "_id": 9,
                "Date": "2020-01-08 00:00:00",
                "Pos": 1,
                "Total": 1
            },
            {
                "_id": 10,
                "Date": "2020-01-09 00:00:00",
                "Pos": 4,
                "Total": 13
            },
            {
                "_id": 11,
                "Date": "2020-01-10 00:00:00",
                "Pos": 0,
                "Total": 18
            },
            {
                "_id": 12,
                "Date": "2020-01-11 00:00:00",
                "Pos": 0,
                "Total": 3
            },
            {
                "_id": 13,
                "Date": "2020-01-12 00:00:00",
                "Pos": 2,
                "Total": 6
            },
            {
                "_id": 14,
                "Date": "2020-01-13 00:00:00",
                "Pos": 2,
                "Total": 14
            },
            {
                "_id": 15,
                "Date": "2020-01-14 00:00:00",
                "Pos": 6,
                "Total": 7
            },
            {
                "_id": 16,
                "Date": "2020-01-15 00:00:00",
                "Pos": 5,
                "Total": 12
            },
            {
                "_id": 17,
                "Date": "2020-01-16 00:00:00",
                "Pos": 1,
                "Total": 9
            },
            {
                "_id": 18,
                "Date": "2020-01-17 00:00:00",
                "Pos": 0,
                "Total": 5
            },
            {
                "_id": 19,
                "Date": "2020-01-18 00:00:00",
                "Pos": 1,
                "Total": 23
            },
            {
                "_id": 20,
                "Date": "2020-01-19 00:00:00",
                "Pos": 1,
                "Total": 6
            },
            {
                "_id": 21,
                "Date": "2020-01-20 00:00:00",
                "Pos": 3,
                "Total": 48
            },
            {
                "_id": 22,
                "Date": "2020-01-21 00:00:00",
                "Pos": 0,
                "Total": 12
            },
            {
                "_id": 23,
                "Date": "2020-01-22 00:00:00",
                "Pos": 1,
                "Total": 8
            },
            {
                "_id": 24,
                "Date": "2020-01-23 00:00:00",
                "Pos": 3,
                "Total": 24
            },
            {
                "_id": 25,
                "Date": "2020-01-24 00:00:00",
                "Pos": 2,
                "Total": 19
            },
            {
                "_id": 26,
                "Date": "2020-01-25 00:00:00",
                "Pos": 2,
                "Total": 26
            },
            {
                "_id": 27,
                "Date": "2020-01-26 00:00:00",
                "Pos": 7,
                "Total": 61
            },
            {
                "_id": 28,
                "Date": "2020-01-27 00:00:00",
                "Pos": 4,
                "Total": 59
            },
            {
                "_id": 29,
                "Date": "2020-01-28 00:00:00",
                "Pos": 10,
                "Total": 78
            },
            {
                "_id": 30,
                "Date": "2020-01-29 00:00:00",
                "Pos": 8,
                "Total": 108
            },
            {
                "_id": 31,
                "Date": "2020-01-30 00:00:00",
                "Pos": 8,
                "Total": 135
            },
            {
                "_id": 32,
                "Date": "2020-01-31 00:00:00",
                "Pos": 6,
                "Total": 142
            },
            {
                "_id": 33,
                "Date": "2020-02-01 00:00:00",
                "Pos": 9,
                "Total": 224
            },
            {
                "_id": 34,
                "Date": "2020-02-02 00:00:00",
                "Pos": 14,
                "Total": 153
            },
            {
                "_id": 35,
                "Date": "2020-02-03 00:00:00",
                "Pos": 8,
                "Total": 128
            },
            {
                "_id": 36,
                "Date": "2020-02-04 00:00:00",
                "Pos": 16,
                "Total": 235
            },
            {
                "_id": 37,
                "Date": "2020-02-05 00:00:00",
                "Pos": 8,
                "Total": 387
            },
            {
                "_id": 38,
                "Date": "2020-02-06 00:00:00",
                "Pos": 8,
                "Total": 205
            },
            {
                "_id": 39,
                "Date": "2020-02-07 00:00:00",
                "Pos": 4,
                "Total": 152
            },
            {
                "_id": 40,
                "Date": "2020-02-08 00:00:00",
                "Pos": 8,
                "Total": 104
            },
            {
                "_id": 41,
                "Date": "2020-02-09 00:00:00",
                "Pos": 3,
                "Total": 61
            },
            {
                "_id": 42,
                "Date": "2020-02-10 00:00:00",
                "Pos": 5,
                "Total": 51
            },
            {
                "_id": 43,
                "Date": "2020-02-11 00:00:00",
                "Pos": 2,
                "Total": 65
            },
            {
                "_id": 44,
                "Date": "2020-02-12 00:00:00",
                "Pos": 5,
                "Total": 116
            },
            {
                "_id": 45,
                "Date": "2020-02-13 00:00:00",
                "Pos": 5,
                "Total": 69
            },
            {
                "_id": 46,
                "Date": "2020-02-14 00:00:00",
                "Pos": 2,
                "Total": 53
            },
            {
                "_id": 47,
                "Date": "2020-02-15 00:00:00",
                "Pos": 6,
                "Total": 81
            },
            {
                "_id": 48,
                "Date": "2020-02-16 00:00:00",
                "Pos": 0,
                "Total": 33
            },
            {
                "_id": 49,
                "Date": "2020-02-17 00:00:00",
                "Pos": 1,
                "Total": 125
            },
            {
                "_id": 50,
                "Date": "2020-02-18 00:00:00",
                "Pos": 6,
                "Total": 124
            },
            {
                "_id": 51,
                "Date": "2020-02-19 00:00:00",
                "Pos": 1,
                "Total": 188
            },
            {
                "_id": 52,
                "Date": "2020-02-20 00:00:00",
                "Pos": 2,
                "Total": 193
            },
            {
                "_id": 53,
                "Date": "2020-02-21 00:00:00",
                "Pos": 4,
                "Total": 190
            },
            {
                "_id": 54,
                "Date": "2020-02-22 00:00:00",
                "Pos": 0,
                "Total": 180
            },
            {
                "_id": 55,
                "Date": "2020-02-23 00:00:00",
                "Pos": 2,
                "Total": 255
            },
            {
                "_id": 56,
                "Date": "2020-02-24 00:00:00",
                "Pos": 4,
                "Total": 351
            },
            {
                "_id": 57,
                "Date": "2020-02-25 00:00:00",
                "Pos": 6,
                "Total": 489
            },
            {
                "_id": 58,
                "Date": "2020-02-26 00:00:00",
                "Pos": 6,
                "Total": 721
            },
            {
                "_id": 59,
                "Date": "2020-02-27 00:00:00",
                "Pos": 0,
                "Total": 1404
            },
            {
                "_id": 60,
                "Date": "2020-02-28 00:00:00",
                "Pos": 2,
                "Total": 1174
            },
            {
                "_id": 61,
                "Date": "2020-02-29 00:00:00",
                "Pos": 1,
                "Total": 731
            },
            {
                "_id": 62,
                "Date": "2020-03-01 00:00:00",
                "Pos": 2,
                "Total": 621
            },
            {
                "_id": 63,
                "Date": "2020-03-02 00:00:00",
                "Pos": 3,
                "Total": 751
            },
            {
                "_id": 64,
                "Date": "2020-03-03 00:00:00",
                "Pos": 6,
                "Total": 716
            },
            {
                "_id": 65,
                "Date": "2020-03-04 00:00:00",
                "Pos": 4,
                "Total": 632
            },
            {
                "_id": 66,
                "Date": "2020-03-05 00:00:00",
                "Pos": 2,
                "Total": 671
            },
            {
                "_id": 67,
                "Date": "2020-03-06 00:00:00",
                "Pos": 3,
                "Total": 619
            },
            {
                "_id": 68,
                "Date": "2020-03-07 00:00:00",
                "Pos": 4,
                "Total": 696
            },
            {
                "_id": 69,
                "Date": "2020-03-08 00:00:00",
                "Pos": 11,
                "Total": 560
            },
            {
                "_id": 70,
                "Date": "2020-03-09 00:00:00",
                "Pos": 8,
                "Total": 807
            },
            {
                "_id": 71,
                "Date": "2020-03-10 00:00:00",
                "Pos": 12,
                "Total": 611
            },
            {
                "_id": 72,
                "Date": "2020-03-11 00:00:00",
                "Pos": 22,
                "Total": 1005
            },
            {
                "_id": 73,
                "Date": "2020-03-12 00:00:00",
                "Pos": 35,
                "Total": 1054
            },
            {
                "_id": 74,
                "Date": "2020-03-13 00:00:00",
                "Pos": 44,
                "Total": 1246
            },
            {
                "_id": 75,
                "Date": "2020-03-14 00:00:00",
                "Pos": 53,
                "Total": 1356
            },
            {
                "_id": 76,
                "Date": "2020-03-15 00:00:00",
                "Pos": 114,
                "Total": 2106
            },
            {
                "_id": 77,
                "Date": "2020-03-16 00:00:00",
                "Pos": 102,
                "Total": 2190
            },
            {
                "_id": 78,
                "Date": "2020-03-17 00:00:00",
                "Pos": 163,
                "Total": 3162
            },
            {
                "_id": 79,
                "Date": "2020-03-18 00:00:00",
                "Pos": 177,
                "Total": 2696
            },
            {
                "_id": 80,
                "Date": "2020-03-19 00:00:00",
                "Pos": 238,
                "Total": 2895
            },
            {
                "_id": 81,
                "Date": "2020-03-20 00:00:00",
                "Pos": 203,
                "Total": 2109
            },
            {
                "_id": 82,
                "Date": "2020-03-21 00:00:00",
                "Pos": 220,
                "Total": 1668
            },
            {
                "_id": 83,
                "Date": "2020-03-22 00:00:00",
                "Pos": 336,
                "Total": 2058
            },
            {
                "_id": 84,
                "Date": "2020-03-23 00:00:00",
                "Pos": 205,
                "Total": 2369
            },
            {
                "_id": 85,
                "Date": "2020-03-24 00:00:00",
                "Pos": 392,
                "Total": 2363
            },
            {
                "_id": 86,
                "Date": "2020-03-25 00:00:00",
                "Pos": 469,
                "Total": 2923
            },
            {
                "_id": 87,
                "Date": "2020-03-26 00:00:00",
                "Pos": 430,
                "Total": 3358
            },
            {
                "_id": 88,
                "Date": "2020-03-27 00:00:00",
                "Pos": 228,
                "Total": 3429
            },
            {
                "_id": 89,
                "Date": "2020-03-28 00:00:00",
                "Pos": 364,
                "Total": 2627
            },
            {
                "_id": 90,
                "Date": "2020-03-29 00:00:00",
                "Pos": 176,
                "Total": 2251
            },
            {
                "_id": 91,
                "Date": "2020-03-30 00:00:00",
                "Pos": 119,
                "Total": 2320
            },
            {
                "_id": 92,
                "Date": "2020-03-31 00:00:00",
                "Pos": 350,
                "Total": 2506
            },
            {
                "_id": 93,
                "Date": "2020-04-01 00:00:00",
                "Pos": 258,
                "Total": 2777
            },
            {
                "_id": 94,
                "Date": "2020-04-02 00:00:00",
                "Pos": 247,
                "Total": 2963
            },
            {
                "_id": 95,
                "Date": "2020-04-03 00:00:00",
                "Pos": 439,
                "Total": 2762
            },
            {
                "_id": 96,
                "Date": "2020-04-04 00:00:00",
                "Pos": 361,
                "Total": 3189
            },
            {
                "_id": 97,
                "Date": "2020-04-05 00:00:00",
                "Pos": 100,
                "Total": 3525
            },
            {
                "_id": 98,
                "Date": "2020-04-06 00:00:00",
                "Pos": 130,
                "Total": 3891
            },
            {
                "_id": 99,
                "Date": "2020-04-07 00:00:00",
                "Pos": 97,
                "Total": 4738
            },
            {
                "_id": 100,
                "Date": "2020-04-08 00:00:00",
                "Pos": 82,
                "Total": 3804
            }
        ],
        "_links": {
            "start": "/api/3/action/datastore_search?resource_id=0092046c-db85-4608-b519-ce8af099315e",
            "next": "/api/3/action/datastore_search?offset=100&resource_id=0092046c-db85-4608-b519-ce8af099315e"
        },
        "total": 558
    }
}